{ "height":10,
 "layers":[
        {
         "data":[0, 0, 0, 0, 0, 0, 0, 0, 0, 0, 0, 0, 0, 0, 0, 0, 0, 0, 0, 0, 0, 0, 0, 0, 0, 0, 0, 0, 0, 0, 0, 0, 0, 0, 0, 0, 0, 0, 0, 0, 0, 0, 0, 0, 0, 0, 0, 0, 0, 0, 0, 0, 0, 0, 0, 0, 0, 0, 0, 0, 0, 0, 0, 0, 0, 0, 0, 0, 0, 0, 0, 0, 0, 0, 0, 0, 0, 0, 0, 0, 0, 0, 0, 0, 0, 0, 0, 0, 0, 0, 0, 0, 0, 0, 0, 0, 0, 0, 0, 0, 0, 0, 0, 0, 0, 0, 0, 0, 0, 0, 0, 0, 0, 0, 0, 0, 0, 0, 0, 0, 0, 0, 0, 0, 0, 0, 0, 0, 0, 0, 0, 0, 0, 0, 0, 0, 0, 0, 0, 0, 0, 0, 0, 0, 0, 0, 0, 0, 0, 0],
         "height":10,
         "name":"Placeables",
         "opacity":1,
         "type":"tilelayer",
         "visible":true,
         "width":15,
         "x":0,
         "y":0
        }, 
        {
         "data":[0, 0, 0, 0, 0, 0, 0, 0, 0, 0, 0, 0, 0, 0, 0, 0, 0, 0, 0, 0, 0, 0, 0, 0, 0, 0, 0, 0, 0, 0, 0, 0, 0, 0, 0, 0, 0, 0, 0, 0, 0, 0, 0, 0, 0, 0, 6, 0, 0, 4, 0, 0, 0, 0, 0, 0, 0, 0, 3, 0, 0, 1, 1, 1, 1, 1, 1, 1, 0, 0, 0, 0, 0, 0, 0, 0, 0, 0, 0, 0, 0, 0, 0, 0, 0, 0, 0, 0, 0, 0, 0, 0, 0, 0, 0, 0, 0, 0, 0, 0, 0, 0, 0, 0, 0, 0, 0, 0, 0, 0, 0, 0, 1, 1, 1, 1, 1, 2, 0, 0, 5, 0, 0, 0, 0, 0, 0, 0, 0, 0, 0, 0, 0, 0, 0, 1, 1, 1, 1, 1, 2, 0, 0, 0, 0, 0, 0, 0, 0, 0],
         "height":10,
         "name":"The Level",
         "opacity":1,
         "type":"tilelayer",
         "visible":true,
         "width":15,
         "x":0,
         "y":0
        }],
 "orientation":"orthogonal",
 "properties":
    {

    },
 "tileheight":256,
 "tilesets":[
        {
         "firstgid":1,
         "image":"..\/..\/..\/..\/Tiled Learning\/Conveyor.png",
         "imageheight":256,
         "imagewidth":256,
         "margin":0,
         "name":"Conveyor",
         "properties":
            {

            },
         "spacing":0,
         "tileheight":256,
         "tilewidth":256
        }, 
        {
         "firstgid":2,
         "image":"..\/..\/..\/..\/Tiled Learning\/Spring.png",
         "imageheight":256,
         "imagewidth":256,
         "margin":0,
         "name":"Spring",
         "properties":
            {

            },
         "spacing":0,
         "tileheight":256,
         "tilewidth":256
        }, 
        {
         "firstgid":3,
         "image":"..\/..\/..\/..\/Tiled Learning\/Fan.png",
         "imageheight":256,
         "imagewidth":256,
         "margin":0,
         "name":"Fan",
         "properties":
            {

            },
         "spacing":0,
         "tileheight":256,
         "tilewidth":256
        }, 
        {
         "firstgid":4,
         "image":"..\/..\/..\/..\/Tiled Learning\/Robot.png",
         "imageheight":256,
         "imagewidth":256,
         "margin":0,
         "name":"Robot",
         "properties":
            {

            },
         "spacing":0,
         "tileheight":256,
         "tilewidth":256
        }, 
        {
         "firstgid":5,
         "image":"..\/..\/..\/..\/Tiled Learning\/Spawner.png",
         "imageheight":256,
         "imagewidth":256,
         "margin":0,
         "name":"Spawner",
         "properties":
            {

            },
         "spacing":0,
         "tileheight":256,
         "tilewidth":256
        }, 
        {
         "firstgid":6,
         "image":"..\/..\/..\/..\/Tiled Learning\/Collector.png",
         "imageheight":256,
         "imagewidth":256,
         "margin":0,
         "name":"Collector",
         "properties":
            {

            },
         "spacing":0,
         "tileheight":256,
         "tilewidth":256
        }, 
        {
         "firstgid":7,
         "image":"..\/..\/..\/..\/Tiled Learning\/Furnace.png",
         "imageheight":256,
         "imagewidth":256,
         "margin":0,
         "name":"Furnace",
         "properties":
            {

            },
         "spacing":0,
         "tileheight":256,
         "tilewidth":256
        }],
 "tilewidth":256,
 "version":1,
 "width":15
}